lab4/task/taskVarThree/mixed/simulation/qsim/main.msim.vcd
$comment
	File created using the following command:
		vcd file main.msim.vcd -direction
$end
$date
	Thu Oct 24 20:43:41 2024
$end
$version
	ModelSim Version 10.1d
$end
$timescale
	1ps
$end
$scope module main_vlg_vec_tst $end
$var reg 1 ! X2 $end
$var reg 1 " Z1 $end
$var reg 1 # Z2 $end
$var reg 1 $ Z3 $end
$var reg 1 % Z4 $end
$var wire 1 & F $end
$var wire 1 ' X1 $end
$var wire 1 ( X3 $end
$var wire 1 ) sampler $end
$scope module i1 $end
$var wire 1 * gnd $end
$var wire 1 + vcc $end
$var wire 1 , unknown $end
$var tri1 1 - devclrn $end
$var tri1 1 . devpor $end
$var tri1 1 / devoe $end
$var wire 1 0 F~output_o $end
$var wire 1 1 X1~output_o $end
$var wire 1 2 X3~output_o $end
$var wire 1 3 Z3~input_o $end
$var wire 1 4 Z4~input_o $end
$var wire 1 5 Z2~input_o $end
$var wire 1 6 inst2|X3~0_combout $end
$var wire 1 7 Z1~input_o $end
$var wire 1 8 inst|X1~combout $end
$var wire 1 9 X2~input_o $end
$var wire 1 : inst1|WideOr0~0_combout $end
$upscope $end
$upscope $end
$enddefinitions $end
#0
$dumpvars
0!
0"
0#
0$
0%
0&
0'
0(
x)
0*
1+
x,
1-
1.
1/
00
01
02
03
04
05
06
07
08
09
1:
$end
#100000
1%
14
0)
#200000
1$
0%
13
04
1)
#300000
1%
14
0)
16
12
1(
#400000
1#
0$
0%
15
03
04
1)
06
02
0(
#500000
1%
14
0)
#600000
1$
0%
13
04
1)
18
16
11
12
1'
1(
#700000
1%
14
0)
#800000
1"
0#
0$
0%
17
05
03
04
1)
08
06
01
02
0'
0(
#900000
1%
14
0)
18
11
1'
#1000000
1$
0%
13
04
1)
08
01
0'
#1100000
1%
14
0)
18
16
11
12
1'
1(
#1200000
1#
0$
0%
15
03
04
1)
08
06
01
02
0'
0(
#1300000
1%
14
0)
18
11
1'
#1400000
1$
0%
13
04
1)
16
12
1(
#1500000
1%
14
0)
#1600000
1!
0"
0#
0$
0%
19
07
05
03
04
1)
0:
08
06
10
01
02
1&
0'
0(
#1700000
1%
14
0)
#1800000
1$
0%
13
04
1)
#1900000
1%
14
0)
16
12
1(
#2000000
1#
0$
0%
15
03
04
1)
06
02
0(
#2100000
1%
14
0)
#2200000
1$
0%
13
04
1)
18
16
11
12
1'
1(
#2300000
1%
14
0)
#2400000
1"
0#
0$
0%
17
05
03
04
1)
08
06
01
02
0'
0(
#2500000
1%
14
0)
18
1:
11
1'
00
0&
#2600000
1$
0%
13
04
1)
08
0:
01
0'
10
1&
#2700000
1%
14
0)
18
16
11
12
1'
1(
#2800000
1#
0$
0%
15
03
04
1)
08
06
01
02
0'
0(
#2900000
1%
14
0)
18
1:
11
1'
00
0&
#3000000
1$
0%
13
04
1)
16
0:
12
1(
10
1&
#3100000
1%
14
0)
