lab2/Task/simulation/qsim/TaskVar12.msim.vcd
$comment
	File created using the following command:
		vcd file TaskVar12.msim.vcd -direction
$end
$date
	Mon Sep 16 17:04:25 2024
$end
$version
	ModelSim Version 10.1d
$end
$timescale
	1ps
$end
$scope module TaskVar12_vlg_vec_tst $end
$var reg 1 ! input_A $end
$var reg 1 " input_B $end
$var reg 1 # input_C $end
$var wire 1 $ output_F $end
$var wire 1 % sampler $end
$scope module i1 $end
$var wire 1 & gnd $end
$var wire 1 ' vcc $end
$var wire 1 ( unknown $end
$var tri1 1 ) devclrn $end
$var tri1 1 * devpor $end
$var tri1 1 + devoe $end
$var wire 1 , output_F~output_o $end
$var wire 1 - input_C~input_o $end
$var wire 1 . input_A~input_o $end
$var wire 1 / input_B~input_o $end
$var wire 1 0 inst3~combout $end
$upscope $end
$upscope $end
$enddefinitions $end
#0
$dumpvars
0!
0"
0#
x$
x%
0&
1'
x(
1)
1*
1+
x,
0-
0.
0/
x0
$end
#4157
00
#7697
1,
1$
#100000
1#
0%
#100775
1-
#104852
10
#108424
0,
0$
#200000
1"
0#
1%
#200735
1/
#200936
0-
#204574
00
#205320
10
#300000
1#
0%
#300775
1-
#304866
00
#308406
1,
1$
#400000
1!
0"
0#
1%
#400689
1.
#400896
0/
#400936
0-
#404202
10
#407774
0,
0$
#500000
1#
0%
#500775
1-
#600000
1"
0#
1%
#600735
1/
#600936
0-
#700000
1#
0%
#700775
1-
