lab4/task/taskVarThree/table/simulation/qsim/main.msim.vcd
$comment
	File created using the following command:
		vcd file main.msim.vcd -direction
$end
$date
	Thu Oct 24 19:21:18 2024
$end
$version
	ModelSim Version 10.1d
$end
$timescale
	1ps
$end
$scope module main_vlg_vec_tst $end
$var reg 1 ! X1 $end
$var reg 1 " X2 $end
$var reg 1 # X3 $end
$var wire 1 $ F $end
$var wire 1 % sampler $end
$scope module i1 $end
$var wire 1 & gnd $end
$var wire 1 ' vcc $end
$var wire 1 ( unknown $end
$var tri1 1 ) devclrn $end
$var tri1 1 * devpor $end
$var tri1 1 + devoe $end
$var wire 1 , F~output_o $end
$var wire 1 - X1~input_o $end
$var wire 1 . X3~input_o $end
$var wire 1 / X2~input_o $end
$var wire 1 0 WideOr0~0_combout $end
$upscope $end
$upscope $end
$enddefinitions $end
#0
$dumpvars
0!
0"
0#
0$
x%
0&
1'
x(
1)
1*
1+
0,
0-
0.
0/
10
$end
#100000
1#
1.
0%
#200000
1"
0#
1/
0.
1%
00
1,
1$
#300000
1#
1.
0%
#400000
1!
0"
0#
1-
0/
0.
1%
10
0,
0$
#500000
1#
1.
0%
#600000
1"
0#
1/
0.
1%
#700000
1#
1.
0%
00
1,
1$
