lab1/TaskOne/simulation/qsim/TaskOneVarSix.msim.vcd
$comment
	File created using the following command:
		vcd file TaskOneVarSix.msim.vcd -direction
$end
$date
	Fri Sep 13 15:25:16 2024
$end
$version
	ModelSim Version 10.1d
$end
$timescale
	1ps
$end
$scope module TaskOneVarSix_vlg_vec_tst $end
$var reg 1 ! input_A $end
$var reg 1 " input_B $end
$var reg 1 # input_C $end
$var reg 1 $ input_D $end
$var wire 1 % output_Y $end
$var wire 1 & sampler $end
$scope module i1 $end
$var wire 1 ' gnd $end
$var wire 1 ( vcc $end
$var wire 1 ) unknown $end
$var tri1 1 * devclrn $end
$var tri1 1 + devpor $end
$var tri1 1 , devoe $end
$var wire 1 - output_Y~output_o $end
$var wire 1 . input_C~input_o $end
$var wire 1 / input_A~input_o $end
$var wire 1 0 input_D~input_o $end
$var wire 1 1 input_B~input_o $end
$var wire 1 2 inst6~0_combout $end
$upscope $end
$upscope $end
$enddefinitions $end
#0
$dumpvars
0!
0"
0#
0$
0%
x&
0'
1(
x)
1*
1+
1,
0-
0.
0/
00
01
12
$end
#100000
1$
10
0&
#200000
1#
0$
1.
00
1&
#300000
1$
10
0&
02
1-
1%
#400000
1"
0#
0$
11
0.
00
1&
12
0-
0%
#500000
1$
10
0&
#600000
1#
0$
1.
00
1&
#700000
1$
10
0&
02
1-
1%
#800000
1!
0"
0#
0$
1/
01
0.
00
1&
12
0-
0%
#900000
1$
10
0&
#1000000
1#
0$
1.
00
1&
#1100000
1$
10
0&
#1200000
1"
0#
0$
11
0.
00
1&
#1300000
1$
10
0&
#1400000
1#
0$
1.
00
1&
02
1-
1%
#1500000
1$
10
0&
