lab4/task/taskVarThree/schem/simulation/qsim/main.msim.vcd
$comment
	File created using the following command:
		vcd file main.msim.vcd -direction
$end
$date
	Thu Oct 24 18:46:48 2024
$end
$version
	ModelSim Version 10.1d
$end
$timescale
	1ps
$end
$scope module main_vlg_vec_tst $end
$var reg 1 ! X1 $end
$var reg 1 " X2 $end
$var reg 1 # X3 $end
$var wire 1 $ F $end
$var wire 1 % sampler $end
$scope module i1 $end
$var wire 1 & gnd $end
$var wire 1 ' vcc $end
$var wire 1 ( unknown $end
$var tri1 1 ) devclrn $end
$var tri1 1 * devpor $end
$var tri1 1 + devoe $end
$var wire 1 , F~output_o $end
$var wire 1 - X1~input_o $end
$var wire 1 . X3~input_o $end
$var wire 1 / X2~input_o $end
$var wire 1 0 inst2~0_combout $end
$upscope $end
$upscope $end
$enddefinitions $end
#0
$dumpvars
0!
0"
0#
x$
x%
0&
1'
x(
1)
1*
1+
x,
0-
0.
0/
x0
$end
#3364
00
#6801
0,
0$
#100000
1#
0%
#100725
1.
#200000
1"
0#
1%
#200725
1/
#200886
0.
#203855
10
#207299
1,
1$
#300000
1#
0%
#300725
1.
#400000
1!
0"
0#
1%
#400725
1-
#400886
0.
0/
#404250
00
#407687
0,
0$
#500000
1#
0%
#500725
1.
#600000
1"
0#
1%
#600725
1/
#600886
0.
#603855
10
#604539
00
#700000
1#
0%
#700725
1.
#704106
10
#707550
1,
1$
